<mxfile host="app.diagrams.net" modified="2022-08-04T13:22:45.761Z" agent="5.0 (Windows NT 10.0; WOW64) AppleWebKit/537.36 (KHTML, like Gecko) Chrome/102.0.5005.134 YaBrowser/22.7.1.802 Yowser/2.5 Safari/537.36" etag="Z38s_JqJWb6l9RC5kuLH" version="20.2.3" type="gitlab" pages="4">
  <diagram name="Структурная схема" id="bfe91b75-5d2c-26a0-9c1d-138518896778">
    <mxGraphModel dx="280" dy="213" grid="1" gridSize="10" guides="1" tooltips="1" connect="1" arrows="1" fold="1" page="1" pageScale="1" pageWidth="1100" pageHeight="850" background="none" math="0" shadow="0">
      <root>
        <mxCell id="0" />
        <mxCell id="1" parent="0" />
      </root>
    </mxGraphModel>
  </diagram>
  <diagram id="Tsl_MLhsiEmSMrl78Tom" name="L3">
    <mxGraphModel dx="1008" dy="765" grid="1" gridSize="10" guides="1" tooltips="1" connect="1" arrows="1" fold="1" page="1" pageScale="1" pageWidth="827" pageHeight="1169" math="0" shadow="0">
      <root>
        <mxCell id="0" />
        <mxCell id="1" parent="0" />
      </root>
    </mxGraphModel>
  </diagram>
  <diagram id="vWauBMyJv_eWE3gWpoWT" name="L2">
    <mxGraphModel dx="1008" dy="765" grid="1" gridSize="10" guides="1" tooltips="1" connect="1" arrows="1" fold="1" page="1" pageScale="1" pageWidth="827" pageHeight="1169" math="0" shadow="0">
      <root>
        <mxCell id="0" />
        <mxCell id="1" parent="0" />
      </root>
    </mxGraphModel>
  </diagram>
  <diagram id="mIZHWFdeMa_QEmvxAc2A" name="Соединения внешних проводок">
    <mxGraphModel dx="1305" dy="364" grid="1" gridSize="10" guides="1" tooltips="1" connect="1" arrows="1" fold="1" page="1" pageScale="1" pageWidth="827" pageHeight="1169" math="0" shadow="0">
      <root>
        <mxCell id="0" />
        <mxCell id="1" parent="0" />
        <mxCell id="g-PlMZNy-5znFsalilLL-83" value="" style="rounded=0;whiteSpace=wrap;html=1;sketch=0;" vertex="1" parent="1">
          <mxGeometry x="70" y="240" width="900" height="90" as="geometry" />
        </mxCell>
        <mxCell id="g-PlMZNy-5znFsalilLL-82" value="" style="rounded=0;whiteSpace=wrap;html=1;sketch=0;" vertex="1" parent="1">
          <mxGeometry x="-50" y="240" width="120" height="90" as="geometry" />
        </mxCell>
        <mxCell id="g-PlMZNy-5znFsalilLL-8" value="" style="group" vertex="1" connectable="0" parent="1">
          <mxGeometry x="67" y="110" width="890" height="80" as="geometry" />
        </mxCell>
        <mxCell id="g-PlMZNy-5znFsalilLL-6" value="" style="rounded=0;whiteSpace=wrap;html=1;sketch=0;" vertex="1" parent="g-PlMZNy-5znFsalilLL-8">
          <mxGeometry x="-120" y="-20" width="960" height="100" as="geometry" />
        </mxCell>
        <mxCell id="g-PlMZNy-5znFsalilLL-9" value="Sfp&lt;br&gt;01" style="rounded=0;whiteSpace=wrap;html=1;sketch=0;fillColor=#dae8fc;strokeColor=#6c8ebf;" vertex="1" parent="g-PlMZNy-5znFsalilLL-8">
          <mxGeometry x="10" y="40" width="40" height="40" as="geometry" />
        </mxCell>
        <mxCell id="g-PlMZNy-5znFsalilLL-10" value="Spf&lt;br&gt;02" style="rounded=0;whiteSpace=wrap;html=1;sketch=0;fillColor=#dae8fc;strokeColor=#6c8ebf;" vertex="1" parent="g-PlMZNy-5znFsalilLL-8">
          <mxGeometry x="60" y="40" width="40" height="40" as="geometry" />
        </mxCell>
        <mxCell id="g-PlMZNy-5znFsalilLL-11" value="Sfp&lt;br&gt;03" style="rounded=0;whiteSpace=wrap;html=1;sketch=0;fillColor=#dae8fc;strokeColor=#6c8ebf;" vertex="1" parent="g-PlMZNy-5znFsalilLL-8">
          <mxGeometry x="110" y="40" width="40" height="40" as="geometry" />
        </mxCell>
        <mxCell id="g-PlMZNy-5znFsalilLL-12" value="Sfp&lt;br&gt;04" style="rounded=0;whiteSpace=wrap;html=1;sketch=0;fillColor=#dae8fc;strokeColor=#6c8ebf;" vertex="1" parent="g-PlMZNy-5znFsalilLL-8">
          <mxGeometry x="160" y="40" width="40" height="40" as="geometry" />
        </mxCell>
        <mxCell id="g-PlMZNy-5znFsalilLL-2" value="Eth&amp;nbsp;&lt;br&gt;01" style="rounded=0;whiteSpace=wrap;html=1;sketch=0;fillColor=#ffe6cc;strokeColor=#d79b00;" vertex="1" parent="g-PlMZNy-5znFsalilLL-8">
          <mxGeometry x="240" y="40" width="40" height="40" as="geometry" />
        </mxCell>
        <mxCell id="g-PlMZNy-5znFsalilLL-3" value="Eth&amp;nbsp;&lt;br&gt;02" style="rounded=0;whiteSpace=wrap;html=1;sketch=0;fillColor=#ffe6cc;strokeColor=#d79b00;" vertex="1" parent="g-PlMZNy-5znFsalilLL-8">
          <mxGeometry x="290" y="40" width="40" height="40" as="geometry" />
        </mxCell>
        <mxCell id="g-PlMZNy-5znFsalilLL-4" value="Eth&amp;nbsp;&lt;br&gt;03" style="rounded=0;whiteSpace=wrap;html=1;sketch=0;fillColor=#ffe6cc;strokeColor=#d79b00;" vertex="1" parent="g-PlMZNy-5znFsalilLL-8">
          <mxGeometry x="340" y="40" width="40" height="40" as="geometry" />
        </mxCell>
        <mxCell id="g-PlMZNy-5znFsalilLL-5" value="Eth&amp;nbsp;&lt;br&gt;04" style="rounded=0;whiteSpace=wrap;html=1;sketch=0;fillColor=#ffe6cc;strokeColor=#d79b00;" vertex="1" parent="g-PlMZNy-5znFsalilLL-8">
          <mxGeometry x="390" y="40" width="40" height="40" as="geometry" />
        </mxCell>
        <mxCell id="g-PlMZNy-5znFsalilLL-13" value="Eth&amp;nbsp;&lt;br&gt;05" style="rounded=0;whiteSpace=wrap;html=1;sketch=0;fillColor=#ffe6cc;strokeColor=#d79b00;" vertex="1" parent="g-PlMZNy-5znFsalilLL-8">
          <mxGeometry x="440" y="40" width="40" height="40" as="geometry" />
        </mxCell>
        <mxCell id="g-PlMZNy-5znFsalilLL-14" value="Eth&amp;nbsp;&lt;br&gt;06" style="rounded=0;whiteSpace=wrap;html=1;sketch=0;fillColor=#ffe6cc;strokeColor=#d79b00;" vertex="1" parent="g-PlMZNy-5znFsalilLL-8">
          <mxGeometry x="490" y="40" width="40" height="40" as="geometry" />
        </mxCell>
        <mxCell id="g-PlMZNy-5znFsalilLL-15" value="Eth&amp;nbsp;&lt;br&gt;07" style="rounded=0;whiteSpace=wrap;html=1;sketch=0;fillColor=#ffe6cc;strokeColor=#d79b00;" vertex="1" parent="g-PlMZNy-5znFsalilLL-8">
          <mxGeometry x="540" y="40" width="40" height="40" as="geometry" />
        </mxCell>
        <mxCell id="g-PlMZNy-5znFsalilLL-16" value="Eth&amp;nbsp;&lt;br&gt;08" style="rounded=0;whiteSpace=wrap;html=1;sketch=0;fillColor=#ffe6cc;strokeColor=#d79b00;" vertex="1" parent="g-PlMZNy-5znFsalilLL-8">
          <mxGeometry x="590" y="40" width="40" height="40" as="geometry" />
        </mxCell>
        <mxCell id="g-PlMZNy-5znFsalilLL-17" value="Eth&amp;nbsp;&lt;br&gt;09" style="rounded=0;whiteSpace=wrap;html=1;sketch=0;fillColor=#ffe6cc;strokeColor=#d79b00;" vertex="1" parent="g-PlMZNy-5znFsalilLL-8">
          <mxGeometry x="640" y="40" width="40" height="40" as="geometry" />
        </mxCell>
        <mxCell id="g-PlMZNy-5znFsalilLL-18" value="Eth&amp;nbsp;&lt;br&gt;10" style="rounded=0;whiteSpace=wrap;html=1;sketch=0;fillColor=#ffe6cc;strokeColor=#d79b00;" vertex="1" parent="g-PlMZNy-5znFsalilLL-8">
          <mxGeometry x="690" y="40" width="40" height="40" as="geometry" />
        </mxCell>
        <mxCell id="g-PlMZNy-5znFsalilLL-19" value="Eth&amp;nbsp;&lt;br&gt;11" style="rounded=0;whiteSpace=wrap;html=1;sketch=0;fillColor=#ffe6cc;strokeColor=#d79b00;" vertex="1" parent="g-PlMZNy-5znFsalilLL-8">
          <mxGeometry x="740" y="40" width="40" height="40" as="geometry" />
        </mxCell>
        <mxCell id="g-PlMZNy-5znFsalilLL-20" value="Eth&amp;nbsp;&lt;br&gt;12" style="rounded=0;whiteSpace=wrap;html=1;sketch=0;fillColor=#ffe6cc;strokeColor=#d79b00;" vertex="1" parent="g-PlMZNy-5znFsalilLL-8">
          <mxGeometry x="790" y="40" width="40" height="40" as="geometry" />
        </mxCell>
        <mxCell id="g-PlMZNy-5znFsalilLL-7" value="Microtik&lt;br&gt;CCR1036-12G-4S" style="text;html=1;resizable=0;autosize=1;align=left;verticalAlign=middle;points=[];fillColor=none;strokeColor=none;rounded=0;sketch=0;" vertex="1" parent="g-PlMZNy-5znFsalilLL-8">
          <mxGeometry x="-120" width="120" height="40" as="geometry" />
        </mxCell>
        <mxCell id="g-PlMZNy-5znFsalilLL-74" value="" style="endArrow=none;html=1;rounded=0;entryX=0.125;entryY=1.003;entryDx=0;entryDy=0;entryPerimeter=0;exitX=0.126;exitY=-0.011;exitDx=0;exitDy=0;exitPerimeter=0;" edge="1" parent="g-PlMZNy-5znFsalilLL-8" source="g-PlMZNy-5znFsalilLL-6" target="g-PlMZNy-5znFsalilLL-6">
          <mxGeometry width="50" height="50" relative="1" as="geometry">
            <mxPoint as="sourcePoint" />
            <mxPoint x="30" y="90" as="targetPoint" />
          </mxGeometry>
        </mxCell>
        <mxCell id="g-PlMZNy-5znFsalilLL-26" value="Eth&amp;nbsp;&lt;br&gt;04" style="rounded=0;whiteSpace=wrap;html=1;sketch=0;fillColor=#ffe6cc;strokeColor=#d79b00;" vertex="1" parent="1">
          <mxGeometry x="129" y="240" width="40" height="40" as="geometry" />
        </mxCell>
        <mxCell id="g-PlMZNy-5znFsalilLL-27" value="Eth&amp;nbsp;&lt;br&gt;06" style="rounded=0;whiteSpace=wrap;html=1;sketch=0;fillColor=#ffe6cc;strokeColor=#d79b00;" vertex="1" parent="1">
          <mxGeometry x="179" y="240" width="40" height="40" as="geometry" />
        </mxCell>
        <mxCell id="g-PlMZNy-5znFsalilLL-28" value="Eth&amp;nbsp;&lt;br&gt;08" style="rounded=0;whiteSpace=wrap;html=1;sketch=0;fillColor=#ffe6cc;strokeColor=#d79b00;" vertex="1" parent="1">
          <mxGeometry x="229" y="240" width="40" height="40" as="geometry" />
        </mxCell>
        <mxCell id="g-PlMZNy-5znFsalilLL-29" value="Eth&amp;nbsp;&lt;br&gt;05" style="rounded=0;whiteSpace=wrap;html=1;sketch=0;fillColor=#ffe6cc;strokeColor=#d79b00;" vertex="1" parent="1">
          <mxGeometry x="134" y="471" width="40" height="40" as="geometry" />
        </mxCell>
        <mxCell id="g-PlMZNy-5znFsalilLL-30" value="Eth&amp;nbsp;&lt;br&gt;06" style="rounded=0;whiteSpace=wrap;html=1;sketch=0;fillColor=#ffe6cc;strokeColor=#d79b00;" vertex="1" parent="1">
          <mxGeometry x="184" y="471" width="40" height="40" as="geometry" />
        </mxCell>
        <mxCell id="g-PlMZNy-5znFsalilLL-31" value="Eth&amp;nbsp;&lt;br&gt;07" style="rounded=0;whiteSpace=wrap;html=1;sketch=0;fillColor=#ffe6cc;strokeColor=#d79b00;" vertex="1" parent="1">
          <mxGeometry x="234" y="471" width="40" height="40" as="geometry" />
        </mxCell>
        <mxCell id="g-PlMZNy-5znFsalilLL-32" value="Eth&amp;nbsp;&lt;br&gt;08" style="rounded=0;whiteSpace=wrap;html=1;sketch=0;fillColor=#ffe6cc;strokeColor=#d79b00;" vertex="1" parent="1">
          <mxGeometry x="284" y="471" width="40" height="40" as="geometry" />
        </mxCell>
        <mxCell id="g-PlMZNy-5znFsalilLL-33" value="Eth&amp;nbsp;&lt;br&gt;09" style="rounded=0;whiteSpace=wrap;html=1;sketch=0;fillColor=#ffe6cc;strokeColor=#d79b00;" vertex="1" parent="1">
          <mxGeometry x="334" y="471" width="40" height="40" as="geometry" />
        </mxCell>
        <mxCell id="g-PlMZNy-5znFsalilLL-34" value="Eth&amp;nbsp;&lt;br&gt;10" style="rounded=0;whiteSpace=wrap;html=1;sketch=0;fillColor=#ffe6cc;strokeColor=#d79b00;" vertex="1" parent="1">
          <mxGeometry x="384" y="471" width="40" height="40" as="geometry" />
        </mxCell>
        <mxCell id="g-PlMZNy-5znFsalilLL-35" value="Eth&amp;nbsp;&lt;br&gt;11" style="rounded=0;whiteSpace=wrap;html=1;sketch=0;fillColor=#ffe6cc;strokeColor=#d79b00;" vertex="1" parent="1">
          <mxGeometry x="434" y="471" width="40" height="40" as="geometry" />
        </mxCell>
        <mxCell id="g-PlMZNy-5znFsalilLL-36" value="Eth&amp;nbsp;&lt;br&gt;12" style="rounded=0;whiteSpace=wrap;html=1;sketch=0;fillColor=#ffe6cc;strokeColor=#d79b00;" vertex="1" parent="1">
          <mxGeometry x="484" y="471" width="40" height="40" as="geometry" />
        </mxCell>
        <mxCell id="g-PlMZNy-5znFsalilLL-37" value="Eth&amp;nbsp;&lt;br&gt;01" style="rounded=0;whiteSpace=wrap;html=1;sketch=0;fillColor=#ffe6cc;strokeColor=#d79b00;" vertex="1" parent="1">
          <mxGeometry x="80" y="290" width="40" height="40" as="geometry" />
        </mxCell>
        <mxCell id="g-PlMZNy-5znFsalilLL-38" value="Eth&amp;nbsp;&lt;br&gt;03" style="rounded=0;whiteSpace=wrap;html=1;sketch=0;fillColor=#ffe6cc;strokeColor=#d79b00;" vertex="1" parent="1">
          <mxGeometry x="130" y="290" width="40" height="40" as="geometry" />
        </mxCell>
        <mxCell id="g-PlMZNy-5znFsalilLL-39" value="Eth&amp;nbsp;&lt;br&gt;05" style="rounded=0;whiteSpace=wrap;html=1;sketch=0;fillColor=#ffe6cc;strokeColor=#d79b00;" vertex="1" parent="1">
          <mxGeometry x="180" y="290" width="40" height="40" as="geometry" />
        </mxCell>
        <mxCell id="g-PlMZNy-5znFsalilLL-40" value="Eth&amp;nbsp;&lt;br&gt;07" style="rounded=0;whiteSpace=wrap;html=1;sketch=0;fillColor=#ffe6cc;strokeColor=#d79b00;" vertex="1" parent="1">
          <mxGeometry x="230" y="290" width="40" height="40" as="geometry" />
        </mxCell>
        <mxCell id="g-PlMZNy-5znFsalilLL-41" value="Eth&amp;nbsp;&lt;br&gt;05" style="rounded=0;whiteSpace=wrap;html=1;sketch=0;fillColor=#ffe6cc;strokeColor=#d79b00;" vertex="1" parent="1">
          <mxGeometry x="135" y="531" width="40" height="40" as="geometry" />
        </mxCell>
        <mxCell id="g-PlMZNy-5znFsalilLL-42" value="Eth&amp;nbsp;&lt;br&gt;06" style="rounded=0;whiteSpace=wrap;html=1;sketch=0;fillColor=#ffe6cc;strokeColor=#d79b00;" vertex="1" parent="1">
          <mxGeometry x="185" y="531" width="40" height="40" as="geometry" />
        </mxCell>
        <mxCell id="g-PlMZNy-5znFsalilLL-43" value="Eth&amp;nbsp;&lt;br&gt;07" style="rounded=0;whiteSpace=wrap;html=1;sketch=0;fillColor=#ffe6cc;strokeColor=#d79b00;" vertex="1" parent="1">
          <mxGeometry x="235" y="531" width="40" height="40" as="geometry" />
        </mxCell>
        <mxCell id="g-PlMZNy-5znFsalilLL-44" value="Eth&amp;nbsp;&lt;br&gt;08" style="rounded=0;whiteSpace=wrap;html=1;sketch=0;fillColor=#ffe6cc;strokeColor=#d79b00;" vertex="1" parent="1">
          <mxGeometry x="285" y="531" width="40" height="40" as="geometry" />
        </mxCell>
        <mxCell id="g-PlMZNy-5znFsalilLL-45" value="Eth&amp;nbsp;&lt;br&gt;09" style="rounded=0;whiteSpace=wrap;html=1;sketch=0;fillColor=#ffe6cc;strokeColor=#d79b00;" vertex="1" parent="1">
          <mxGeometry x="335" y="531" width="40" height="40" as="geometry" />
        </mxCell>
        <mxCell id="g-PlMZNy-5znFsalilLL-46" value="Eth&amp;nbsp;&lt;br&gt;10" style="rounded=0;whiteSpace=wrap;html=1;sketch=0;fillColor=#ffe6cc;strokeColor=#d79b00;" vertex="1" parent="1">
          <mxGeometry x="385" y="531" width="40" height="40" as="geometry" />
        </mxCell>
        <mxCell id="g-PlMZNy-5znFsalilLL-47" value="Eth&amp;nbsp;&lt;br&gt;11" style="rounded=0;whiteSpace=wrap;html=1;sketch=0;fillColor=#ffe6cc;strokeColor=#d79b00;" vertex="1" parent="1">
          <mxGeometry x="435" y="531" width="40" height="40" as="geometry" />
        </mxCell>
        <mxCell id="g-PlMZNy-5znFsalilLL-48" value="Eth&amp;nbsp;&lt;br&gt;12" style="rounded=0;whiteSpace=wrap;html=1;sketch=0;fillColor=#ffe6cc;strokeColor=#d79b00;" vertex="1" parent="1">
          <mxGeometry x="485" y="531" width="40" height="40" as="geometry" />
        </mxCell>
        <mxCell id="g-PlMZNy-5znFsalilLL-49" value="Eth&amp;nbsp;&lt;br&gt;01" style="rounded=0;whiteSpace=wrap;html=1;sketch=0;fillColor=#ffe6cc;strokeColor=#d79b00;" vertex="1" parent="1">
          <mxGeometry x="535" y="471" width="40" height="40" as="geometry" />
        </mxCell>
        <mxCell id="g-PlMZNy-5znFsalilLL-50" value="Eth&amp;nbsp;&lt;br&gt;02" style="rounded=0;whiteSpace=wrap;html=1;sketch=0;fillColor=#ffe6cc;strokeColor=#d79b00;" vertex="1" parent="1">
          <mxGeometry x="585" y="471" width="40" height="40" as="geometry" />
        </mxCell>
        <mxCell id="g-PlMZNy-5znFsalilLL-51" value="Eth&amp;nbsp;&lt;br&gt;03" style="rounded=0;whiteSpace=wrap;html=1;sketch=0;fillColor=#ffe6cc;strokeColor=#d79b00;" vertex="1" parent="1">
          <mxGeometry x="635" y="471" width="40" height="40" as="geometry" />
        </mxCell>
        <mxCell id="g-PlMZNy-5znFsalilLL-52" value="Eth&amp;nbsp;&lt;br&gt;04" style="rounded=0;whiteSpace=wrap;html=1;sketch=0;fillColor=#ffe6cc;strokeColor=#d79b00;" vertex="1" parent="1">
          <mxGeometry x="685" y="471" width="40" height="40" as="geometry" />
        </mxCell>
        <mxCell id="g-PlMZNy-5znFsalilLL-53" value="Eth&amp;nbsp;&lt;br&gt;05" style="rounded=0;whiteSpace=wrap;html=1;sketch=0;fillColor=#ffe6cc;strokeColor=#d79b00;" vertex="1" parent="1">
          <mxGeometry x="735" y="471" width="40" height="40" as="geometry" />
        </mxCell>
        <mxCell id="g-PlMZNy-5znFsalilLL-54" value="Eth&amp;nbsp;&lt;br&gt;06" style="rounded=0;whiteSpace=wrap;html=1;sketch=0;fillColor=#ffe6cc;strokeColor=#d79b00;" vertex="1" parent="1">
          <mxGeometry x="785" y="471" width="40" height="40" as="geometry" />
        </mxCell>
        <mxCell id="g-PlMZNy-5znFsalilLL-55" value="Eth&amp;nbsp;&lt;br&gt;07" style="rounded=0;whiteSpace=wrap;html=1;sketch=0;fillColor=#ffe6cc;strokeColor=#d79b00;" vertex="1" parent="1">
          <mxGeometry x="835" y="471" width="40" height="40" as="geometry" />
        </mxCell>
        <mxCell id="g-PlMZNy-5znFsalilLL-56" value="Eth&amp;nbsp;&lt;br&gt;08" style="rounded=0;whiteSpace=wrap;html=1;sketch=0;fillColor=#ffe6cc;strokeColor=#d79b00;" vertex="1" parent="1">
          <mxGeometry x="885" y="471" width="40" height="40" as="geometry" />
        </mxCell>
        <mxCell id="g-PlMZNy-5znFsalilLL-57" value="Eth&amp;nbsp;&lt;br&gt;09" style="rounded=0;whiteSpace=wrap;html=1;sketch=0;fillColor=#ffe6cc;strokeColor=#d79b00;" vertex="1" parent="1">
          <mxGeometry x="935" y="471" width="40" height="40" as="geometry" />
        </mxCell>
        <mxCell id="g-PlMZNy-5znFsalilLL-58" value="Eth&amp;nbsp;&lt;br&gt;10" style="rounded=0;whiteSpace=wrap;html=1;sketch=0;fillColor=#ffe6cc;strokeColor=#d79b00;" vertex="1" parent="1">
          <mxGeometry x="985" y="471" width="40" height="40" as="geometry" />
        </mxCell>
        <mxCell id="g-PlMZNy-5znFsalilLL-59" value="Eth&amp;nbsp;&lt;br&gt;11" style="rounded=0;whiteSpace=wrap;html=1;sketch=0;fillColor=#ffe6cc;strokeColor=#d79b00;" vertex="1" parent="1">
          <mxGeometry x="1035" y="471" width="40" height="40" as="geometry" />
        </mxCell>
        <mxCell id="g-PlMZNy-5znFsalilLL-60" value="Eth&amp;nbsp;&lt;br&gt;12" style="rounded=0;whiteSpace=wrap;html=1;sketch=0;fillColor=#ffe6cc;strokeColor=#d79b00;" vertex="1" parent="1">
          <mxGeometry x="1085" y="471" width="40" height="40" as="geometry" />
        </mxCell>
        <mxCell id="g-PlMZNy-5znFsalilLL-61" value="Eth&amp;nbsp;&lt;br&gt;01" style="rounded=0;whiteSpace=wrap;html=1;sketch=0;fillColor=#ffe6cc;strokeColor=#d79b00;" vertex="1" parent="1">
          <mxGeometry x="535" y="531" width="40" height="40" as="geometry" />
        </mxCell>
        <mxCell id="g-PlMZNy-5znFsalilLL-62" value="Eth&amp;nbsp;&lt;br&gt;02" style="rounded=0;whiteSpace=wrap;html=1;sketch=0;fillColor=#ffe6cc;strokeColor=#d79b00;" vertex="1" parent="1">
          <mxGeometry x="585" y="531" width="40" height="40" as="geometry" />
        </mxCell>
        <mxCell id="g-PlMZNy-5znFsalilLL-63" value="Eth&amp;nbsp;&lt;br&gt;03" style="rounded=0;whiteSpace=wrap;html=1;sketch=0;fillColor=#ffe6cc;strokeColor=#d79b00;" vertex="1" parent="1">
          <mxGeometry x="635" y="531" width="40" height="40" as="geometry" />
        </mxCell>
        <mxCell id="g-PlMZNy-5znFsalilLL-64" value="Eth&amp;nbsp;&lt;br&gt;04" style="rounded=0;whiteSpace=wrap;html=1;sketch=0;fillColor=#ffe6cc;strokeColor=#d79b00;" vertex="1" parent="1">
          <mxGeometry x="685" y="531" width="40" height="40" as="geometry" />
        </mxCell>
        <mxCell id="g-PlMZNy-5znFsalilLL-65" value="Eth&amp;nbsp;&lt;br&gt;05" style="rounded=0;whiteSpace=wrap;html=1;sketch=0;fillColor=#ffe6cc;strokeColor=#d79b00;" vertex="1" parent="1">
          <mxGeometry x="735" y="531" width="40" height="40" as="geometry" />
        </mxCell>
        <mxCell id="g-PlMZNy-5znFsalilLL-66" value="Eth&amp;nbsp;&lt;br&gt;06" style="rounded=0;whiteSpace=wrap;html=1;sketch=0;fillColor=#ffe6cc;strokeColor=#d79b00;" vertex="1" parent="1">
          <mxGeometry x="785" y="531" width="40" height="40" as="geometry" />
        </mxCell>
        <mxCell id="g-PlMZNy-5znFsalilLL-67" value="Eth&amp;nbsp;&lt;br&gt;07" style="rounded=0;whiteSpace=wrap;html=1;sketch=0;fillColor=#ffe6cc;strokeColor=#d79b00;" vertex="1" parent="1">
          <mxGeometry x="835" y="531" width="40" height="40" as="geometry" />
        </mxCell>
        <mxCell id="g-PlMZNy-5znFsalilLL-68" value="Eth&amp;nbsp;&lt;br&gt;08" style="rounded=0;whiteSpace=wrap;html=1;sketch=0;fillColor=#ffe6cc;strokeColor=#d79b00;" vertex="1" parent="1">
          <mxGeometry x="885" y="531" width="40" height="40" as="geometry" />
        </mxCell>
        <mxCell id="g-PlMZNy-5znFsalilLL-69" value="Eth&amp;nbsp;&lt;br&gt;09" style="rounded=0;whiteSpace=wrap;html=1;sketch=0;fillColor=#ffe6cc;strokeColor=#d79b00;" vertex="1" parent="1">
          <mxGeometry x="935" y="531" width="40" height="40" as="geometry" />
        </mxCell>
        <mxCell id="g-PlMZNy-5znFsalilLL-70" value="Eth&amp;nbsp;&lt;br&gt;10" style="rounded=0;whiteSpace=wrap;html=1;sketch=0;fillColor=#ffe6cc;strokeColor=#d79b00;" vertex="1" parent="1">
          <mxGeometry x="985" y="531" width="40" height="40" as="geometry" />
        </mxCell>
        <mxCell id="g-PlMZNy-5znFsalilLL-71" value="Eth&amp;nbsp;&lt;br&gt;11" style="rounded=0;whiteSpace=wrap;html=1;sketch=0;fillColor=#ffe6cc;strokeColor=#d79b00;" vertex="1" parent="1">
          <mxGeometry x="1035" y="531" width="40" height="40" as="geometry" />
        </mxCell>
        <mxCell id="g-PlMZNy-5znFsalilLL-72" value="Eth&amp;nbsp;&lt;br&gt;12" style="rounded=0;whiteSpace=wrap;html=1;sketch=0;fillColor=#ffe6cc;strokeColor=#d79b00;" vertex="1" parent="1">
          <mxGeometry x="1085" y="531" width="40" height="40" as="geometry" />
        </mxCell>
        <mxCell id="g-PlMZNy-5znFsalilLL-76" value="Eth&amp;nbsp;&lt;br&gt;02" style="rounded=0;whiteSpace=wrap;html=1;sketch=0;fillColor=#ffe6cc;strokeColor=#d79b00;" vertex="1" parent="1">
          <mxGeometry x="80" y="240" width="40" height="40" as="geometry" />
        </mxCell>
        <mxCell id="g-PlMZNy-5znFsalilLL-78" value="Eth&amp;nbsp;&lt;br&gt;11" style="rounded=0;whiteSpace=wrap;html=1;sketch=0;fillColor=#ffe6cc;strokeColor=#d79b00;" vertex="1" parent="1">
          <mxGeometry x="1173" y="471" width="40" height="40" as="geometry" />
        </mxCell>
        <mxCell id="g-PlMZNy-5znFsalilLL-79" value="Eth&amp;nbsp;&lt;br&gt;12" style="rounded=0;whiteSpace=wrap;html=1;sketch=0;fillColor=#ffe6cc;strokeColor=#d79b00;" vertex="1" parent="1">
          <mxGeometry x="1223" y="471" width="40" height="40" as="geometry" />
        </mxCell>
        <mxCell id="g-PlMZNy-5znFsalilLL-80" value="Eth&amp;nbsp;&lt;br&gt;11" style="rounded=0;whiteSpace=wrap;html=1;sketch=0;fillColor=#ffe6cc;strokeColor=#d79b00;" vertex="1" parent="1">
          <mxGeometry x="1173" y="531" width="40" height="40" as="geometry" />
        </mxCell>
        <mxCell id="g-PlMZNy-5znFsalilLL-81" value="Eth&amp;nbsp;&lt;br&gt;12" style="rounded=0;whiteSpace=wrap;html=1;sketch=0;fillColor=#ffe6cc;strokeColor=#d79b00;" vertex="1" parent="1">
          <mxGeometry x="1223" y="531" width="40" height="40" as="geometry" />
        </mxCell>
        <mxCell id="g-PlMZNy-5znFsalilLL-84" value="Eth&amp;nbsp;&lt;br&gt;12" style="rounded=0;whiteSpace=wrap;html=1;sketch=0;fillColor=#ffe6cc;strokeColor=#d79b00;" vertex="1" parent="1">
          <mxGeometry x="358" y="240" width="40" height="40" as="geometry" />
        </mxCell>
        <mxCell id="g-PlMZNy-5znFsalilLL-85" value="Eth&amp;nbsp;&lt;br&gt;14" style="rounded=0;whiteSpace=wrap;html=1;sketch=0;fillColor=#ffe6cc;strokeColor=#d79b00;" vertex="1" parent="1">
          <mxGeometry x="408" y="240" width="40" height="40" as="geometry" />
        </mxCell>
        <mxCell id="g-PlMZNy-5znFsalilLL-86" value="Eth&amp;nbsp;&lt;br&gt;16" style="rounded=0;whiteSpace=wrap;html=1;sketch=0;fillColor=#ffe6cc;strokeColor=#d79b00;" vertex="1" parent="1">
          <mxGeometry x="458" y="240" width="40" height="40" as="geometry" />
        </mxCell>
        <mxCell id="g-PlMZNy-5znFsalilLL-87" value="Eth&amp;nbsp;&lt;br&gt;09" style="rounded=0;whiteSpace=wrap;html=1;sketch=0;fillColor=#ffe6cc;strokeColor=#d79b00;" vertex="1" parent="1">
          <mxGeometry x="309" y="290" width="40" height="40" as="geometry" />
        </mxCell>
        <mxCell id="g-PlMZNy-5znFsalilLL-88" value="Eth&amp;nbsp;&lt;br&gt;11" style="rounded=0;whiteSpace=wrap;html=1;sketch=0;fillColor=#ffe6cc;strokeColor=#d79b00;" vertex="1" parent="1">
          <mxGeometry x="359" y="290" width="40" height="40" as="geometry" />
        </mxCell>
        <mxCell id="g-PlMZNy-5znFsalilLL-89" value="Eth&amp;nbsp;&lt;br&gt;13" style="rounded=0;whiteSpace=wrap;html=1;sketch=0;fillColor=#ffe6cc;strokeColor=#d79b00;" vertex="1" parent="1">
          <mxGeometry x="409" y="290" width="40" height="40" as="geometry" />
        </mxCell>
        <mxCell id="g-PlMZNy-5znFsalilLL-90" value="Eth&amp;nbsp;&lt;br&gt;15" style="rounded=0;whiteSpace=wrap;html=1;sketch=0;fillColor=#ffe6cc;strokeColor=#d79b00;" vertex="1" parent="1">
          <mxGeometry x="459" y="290" width="40" height="40" as="geometry" />
        </mxCell>
        <mxCell id="g-PlMZNy-5znFsalilLL-91" value="Eth&amp;nbsp;&lt;br&gt;10" style="rounded=0;whiteSpace=wrap;html=1;sketch=0;fillColor=#ffe6cc;strokeColor=#d79b00;" vertex="1" parent="1">
          <mxGeometry x="309" y="240" width="40" height="40" as="geometry" />
        </mxCell>
        <mxCell id="g-PlMZNy-5znFsalilLL-92" value="Eth&amp;nbsp;&lt;br&gt;20" style="rounded=0;whiteSpace=wrap;html=1;sketch=0;fillColor=#ffe6cc;strokeColor=#d79b00;" vertex="1" parent="1">
          <mxGeometry x="589" y="240" width="40" height="40" as="geometry" />
        </mxCell>
        <mxCell id="g-PlMZNy-5znFsalilLL-93" value="Eth&amp;nbsp;&lt;br&gt;22" style="rounded=0;whiteSpace=wrap;html=1;sketch=0;fillColor=#ffe6cc;strokeColor=#d79b00;" vertex="1" parent="1">
          <mxGeometry x="639" y="240" width="40" height="40" as="geometry" />
        </mxCell>
        <mxCell id="g-PlMZNy-5znFsalilLL-94" value="Eth&amp;nbsp;&lt;br&gt;24" style="rounded=0;whiteSpace=wrap;html=1;sketch=0;fillColor=#ffe6cc;strokeColor=#d79b00;" vertex="1" parent="1">
          <mxGeometry x="689" y="240" width="40" height="40" as="geometry" />
        </mxCell>
        <mxCell id="g-PlMZNy-5znFsalilLL-95" value="Eth&amp;nbsp;&lt;br&gt;17" style="rounded=0;whiteSpace=wrap;html=1;sketch=0;fillColor=#ffe6cc;strokeColor=#d79b00;" vertex="1" parent="1">
          <mxGeometry x="540" y="290" width="40" height="40" as="geometry" />
        </mxCell>
        <mxCell id="g-PlMZNy-5znFsalilLL-96" value="Eth&amp;nbsp;&lt;br&gt;19" style="rounded=0;whiteSpace=wrap;html=1;sketch=0;fillColor=#ffe6cc;strokeColor=#d79b00;" vertex="1" parent="1">
          <mxGeometry x="590" y="290" width="40" height="40" as="geometry" />
        </mxCell>
        <mxCell id="g-PlMZNy-5znFsalilLL-97" value="Eth&amp;nbsp;&lt;br&gt;21" style="rounded=0;whiteSpace=wrap;html=1;sketch=0;fillColor=#ffe6cc;strokeColor=#d79b00;" vertex="1" parent="1">
          <mxGeometry x="639" y="290" width="40" height="40" as="geometry" />
        </mxCell>
        <mxCell id="g-PlMZNy-5znFsalilLL-98" value="Eth&amp;nbsp;&lt;br&gt;23" style="rounded=0;whiteSpace=wrap;html=1;sketch=0;fillColor=#ffe6cc;strokeColor=#d79b00;" vertex="1" parent="1">
          <mxGeometry x="690" y="290" width="40" height="40" as="geometry" />
        </mxCell>
        <mxCell id="g-PlMZNy-5znFsalilLL-99" value="Eth&amp;nbsp;&lt;br&gt;18" style="rounded=0;whiteSpace=wrap;html=1;sketch=0;fillColor=#ffe6cc;strokeColor=#d79b00;" vertex="1" parent="1">
          <mxGeometry x="540" y="240" width="40" height="40" as="geometry" />
        </mxCell>
      </root>
    </mxGraphModel>
  </diagram>
</mxfile>
